{
  "extends": [
    "tslint-react",
    "tslint-microsoft-contrib"
  ],
  "rules": {
    "align": [
      true,
      "parameters",
      "arguments",
      "statements"
    ],
    "ban": false,
    "class-name": true,
    "comment-format": [
      true,
      "check-space"
    ],
    "eofline": false,
    "forin": true,
    "indent": [
      true,
      "spaces",
      2
    ],
    "ordered-imports": false,
    "interface-name": [
      true,
      "never-prefix"
    ],
    "jsdoc-format": true,
    "jsx-no-lambda": false,
    "no-typeof-undefined": false,
    "jsx-no-multiline-js": false,
    "label-position": true,
    "arrow-parens": [true, "ban-single-arg-parens"],
    "max-line-length": [
      true,
      120
    ],
    "no-cookies": false,
    "member-ordering": false,
    "no-any": false,
    "no-arg": true,
    "no-bitwise": true,
    "no-consecutive-blank-lines": true,
    "no-construct": true,
    "no-debugger": true,
    "no-duplicate-variable": true,
    "no-empty": true,
    "no-void-expression": [true, "ignore-arrow-function-shorthand"],
    "completed-docs": false,
    "no-eval": true,
    "no-shadowed-variable": true,
    "no-string-literal": true,
    "no-switch-case-fall-through": true,
    "no-trailing-whitespace": false,
    "no-http-string": false,
    "no-unused-expression": true,
    "no-use-before-declare": true,
    "one-line": [
      true,
      "check-catch",
      "check-open-brace",
      "check-whitespace"
    ],
    "prefer-for-of": true,
    "prefer-object-spread": true,
    "prefer-switch": true,
    "prefer-type-cast": false,
    "no-angle-bracket-type-assertion": true,
    "quotemark": [
      true,
      "single",
      "jsx-double"
    ],
    "radix": true,
    "semicolon": [
      true,
      "always",
      "strict-bound-class-methods"
    ],
    "switch-default": true,
    "trailing-comma": false,
    "triple-equals": [
      true,
      "allow-null-check"
    ],
    "typedef": [
      true,
      "parameter",
      "property-declaration"
    ],
    "typedef-whitespace": [
      true,
      {
        "call-signature": "nospace",
        "index-signature": "nospace",
        "parameter": "nospace",
        "property-declaration": "nospace",
        "variable-declaration": "nospace"
      }
    ],
    "variable-name": [
      true,
      "ban-keywords",
      "check-format",
      "allow-leading-underscore",
      "allow-pascal-case"
    ],
    "whitespace": [
      true,
      "check-branch",
      "check-decl",
      "check-module",
      "check-operator",
      "check-separator",
      "check-type",
      "check-typecast"
    ],
    "no-for-in-array": false,
    "restrict-plus-operands": false,
    "missing-jsdoc": false,
    "linebreak-style": false,
    "export-name": false,
    "no-relative-imports": false,
    "react-tsx-curly-spacing": false,
    "react-this-binding-issue": false,
    "match-default-export-name": false,
    "no-increment-decrement": false,
    "no-backbone-get-set-outside-model": false,
    "mocha-no-side-effect-code": false,
    "no-require-imports": false,
    "react-a11y-image-button-has-alt": false,
    "no-multiline-string": false,
    "react-a11y-anchors": false,
    "no-unused-variable": [
      "react"
    ],
    "public-before-private": false,
    "react-no-dangerous-html": false,
    "no-default-export": true,
    "import-name": false,
    "no-implicit-dependencies": false,
    "jsx-boolean-value": false,
    "no-import-side-effect": false,
    "strict-boolean-expressions": false,
    "no-submodule-imports": [
      true,
      "reactstrap",
      "@src",
      "@test",
      "redux-saga",
      "regenerator-runtime",
      "react-dom",
      "react-icons"
    ],
    "no-unsafe-any": false,
    "function-name": false,
    "curly": false,
    "no-function-expression": false,
    "react-unused-props-and-state": false
  }
}
